%YAML 1.1
%TAG !u! tag:unity3d.com,2011:
--- !u!114 &11400000
MonoBehaviour:
  m_ObjectHideFlags: 0
  m_CorrespondingSourceObject: {fileID: 0}
  m_PrefabInstance: {fileID: 0}
  m_PrefabAsset: {fileID: 0}
  m_GameObject: {fileID: 0}
  m_Enabled: 1
  m_EditorHideFlags: 0
  m_Script: {fileID: 11500000, guid: 5b0cc05a13a2f6f49af136914ee0dd73, type: 3}
  m_Name: Legs_0
  m_EditorClassIdentifier: 
  guid: b9b0f8e0-27ce-42ca-8f97-9b67f94a5db3
  side:
  - {fileID: 21300000, guid: dc87f4b7f9276fe4ba293ce26a496af7, type: 3}
  - {fileID: 21300002, guid: dc87f4b7f9276fe4ba293ce26a496af7, type: 3}
  - {fileID: 21300004, guid: dc87f4b7f9276fe4ba293ce26a496af7, type: 3}
  - {fileID: 21300006, guid: dc87f4b7f9276fe4ba293ce26a496af7, type: 3}
  - {fileID: 21300008, guid: dc87f4b7f9276fe4ba293ce26a496af7, type: 3}
  front:
  - {fileID: 21300010, guid: dc87f4b7f9276fe4ba293ce26a496af7, type: 3}
  - {fileID: 21300012, guid: dc87f4b7f9276fe4ba293ce26a496af7, type: 3}
  - {fileID: 21300014, guid: dc87f4b7f9276fe4ba293ce26a496af7, type: 3}
  - {fileID: 21300016, guid: dc87f4b7f9276fe4ba293ce26a496af7, type: 3}
  - {fileID: 21300018, guid: dc87f4b7f9276fe4ba293ce26a496af7, type: 3}
  back:
  - {fileID: 21300020, guid: dc87f4b7f9276fe4ba293ce26a496af7, type: 3}
  - {fileID: 21300022, guid: dc87f4b7f9276fe4ba293ce26a496af7, type: 3}
  - {fileID: 21300024, guid: dc87f4b7f9276fe4ba293ce26a496af7, type: 3}
  - {fileID: 21300026, guid: dc87f4b7f9276fe4ba293ce26a496af7, type: 3}
  - {fileID: 21300028, guid: dc87f4b7f9276fe4ba293ce26a496af7, type: 3}
  subItem: {fileID: 0}
