%YAML 1.1
%TAG !u! tag:unity3d.com,2011:
--- !u!114 &11400000
MonoBehaviour:
  m_ObjectHideFlags: 0
  m_CorrespondingSourceObject: {fileID: 0}
  m_PrefabInstance: {fileID: 0}
  m_PrefabAsset: {fileID: 0}
  m_GameObject: {fileID: 0}
  m_Enabled: 1
  m_EditorHideFlags: 0
  m_Script: {fileID: 11500000, guid: 5b0cc05a13a2f6f49af136914ee0dd73, type: 3}
  m_Name: Eyes 2
  m_EditorClassIdentifier: 
  guid: d5ffab43-af21-4d5b-894b-b9f353153fb5
  side:
  - {fileID: 21300002, guid: 78e18b4fae8d8d54f87b4f38cb90f837, type: 3}
  front:
  - {fileID: 21300000, guid: 78e18b4fae8d8d54f87b4f38cb90f837, type: 3}
  back: []
  subItem: {fileID: 0}
