%YAML 1.1
%TAG !u! tag:unity3d.com,2011:
--- !u!114 &11400000
MonoBehaviour:
  m_ObjectHideFlags: 0
  m_CorrespondingSourceObject: {fileID: 0}
  m_PrefabInstance: {fileID: 0}
  m_PrefabAsset: {fileID: 0}
  m_GameObject: {fileID: 0}
  m_Enabled: 1
  m_EditorHideFlags: 0
  m_Script: {fileID: 11500000, guid: 5b0cc05a13a2f6f49af136914ee0dd73, type: 3}
  m_Name: Eyes 1
  m_EditorClassIdentifier: 
  guid: 9582501b-77e5-4e78-b98e-2945bc0467ec
  side:
  - {fileID: 21300002, guid: f9a652f147a51914da48e9749c4494ee, type: 3}
  front:
  - {fileID: 21300000, guid: f9a652f147a51914da48e9749c4494ee, type: 3}
  back: []
  subItem: {fileID: 0}
