%YAML 1.1
%TAG !u! tag:unity3d.com,2011:
--- !u!114 &11400000
MonoBehaviour:
  m_ObjectHideFlags: 0
  m_CorrespondingSourceObject: {fileID: 0}
  m_PrefabInstance: {fileID: 0}
  m_PrefabAsset: {fileID: 0}
  m_GameObject: {fileID: 0}
  m_Enabled: 1
  m_EditorHideFlags: 0
  m_Script: {fileID: 11500000, guid: f58b7715f91074746a607529a135c2bb, type: 3}
  m_Name: Item_Tool_Sword
  m_EditorClassIdentifier: 
  guid: 86f489b3-c63c-4c23-a17d-b69f4711041c
  icon: {fileID: 21300004, guid: f7d919c91241eba4ca26f3cf02893f89, type: 3}
  itemName: Sword
  description: Used for killing monsters
  canStack: 0
  hasSlot: 1
  hasEnergy: 0
  energyStartValue:
    min: 0
    max: 0
    current: 0
  isRemoveable: 0
  action: {fileID: 11400000, guid: aa8d486a4eacbb645b4ea1f85854a193, type: 2}
