%YAML 1.1
%TAG !u! tag:unity3d.com,2011:
--- !u!114 &11400000
MonoBehaviour:
  m_ObjectHideFlags: 0
  m_CorrespondingSourceObject: {fileID: 0}
  m_PrefabInstance: {fileID: 0}
  m_PrefabAsset: {fileID: 0}
  m_GameObject: {fileID: 0}
  m_Enabled: 1
  m_EditorHideFlags: 0
  m_Script: {fileID: 11500000, guid: f58b7715f91074746a607529a135c2bb, type: 3}
  m_Name: Item_Tool_WaterCan
  m_EditorClassIdentifier: 
  guid: 66928704-907d-42eb-a122-2ac3645a6d4b
  icon: {fileID: 21300006, guid: f7d919c91241eba4ca26f3cf02893f89, type: 3}
  itemName: Water Can
  description: Used to water the ground
  canStack: 0
  hasSlot: 1
  hasEnergy: 1
  energyStartValue:
    min: 0
    max: 100
    current: 100
  isRemoveable: 0
  action: {fileID: 11400000, guid: b66e3670003ae4c4ab38cadbbb14e82a, type: 2}
